{"Person":{"x":0,"z":0,"id":7587,"name":"hlw","coordinates":{"x":29,"y":22},"creationDate":"2023-08-27 23:32:41.92 UTC","height":279,"birthday":"2000-12-12T00:00:00Z[Z]","weight":84,"eyeColor":"BLUE","location":{"x":83,"y":3,"z":3,"name":"eo"}}}
{"Person":{"x":0,"z":0,"id":9348,"name":"yuio","coordinates":{"x":1,"y":1},"creationDate":"2023-09-04 18:32:12.238 UTC","height":1,"birthday":"1111-11-11T00:00:00Z[Z]","weight":1,"eyeColor":"BROWN","location":{"x":1,"y":1,"z":1,"name":"q"}}}
{"Person":{"x":0,"z":0,"id":2395,"name":"jgas","coordinates":{"x":89,"y":89},"creationDate":"2023-08-27 23:04:41.215 UTC","height":9,"birthday":"2003-12-21T00:00:00Z[Z]","weight":8,"eyeColor":"BLUE","location":{"x":98,"y":9,"z":8,"name":"lkhe"}}}
{"Person":{"x":0,"z":0,"id":7284,"name":"tyu","coordinates":{"x":9,"y":9},"creationDate":"2023-08-27 22:05:07.439 UTC","height":9,"birthday":"2001-12-12T00:00:00Z[Z]","weight":93,"eyeColor":"BLUE","location":{"x":9,"y":9,"z":9,"name":"jdhs"}}}
{"Person":{"x":0,"z":0,"id":9441,"name":"ldsj","coordinates":{"x":98,"y":9},"creationDate":"2023-08-27 21:35:21.655 UTC","height":98,"birthday":"2003-12-12T00:00:00Z[Z]","weight":21,"eyeColor":"BLUE","location":{"x":0,"y":8,"z":9,"name":"ad"}}}
{"Person":{"x":0,"z":0,"id":2573,"name":"rtyu","coordinates":{"x":49,"y":29},"creationDate":"2023-08-28 10:13:17.611 UTC","height":1,"birthday":"2001-11-12T00:00:00Z[Z]","weight":12,"eyeColor":"BLUE","location":{"x":3,"y":3,"z":3,"name":"rf"}}}
{"Person":{"x":0,"z":0,"id":1258,"name":"uew","coordinates":{"x":9,"y":9},"creationDate":"2023-08-29 13:58:47.415 UTC","height":29141,"birthday":"2001-11-30T00:00:00Z[Z]","weight":93182,"eyeColor":"BLUE","location":{"x":1,"y":12,"z":123,"name":"wq"}}}
{"Person":{"x":0,"z":0,"id":4886,"name":"iau","coordinates":{"x":89,"y":8},"creationDate":"2023-08-29 15:21:16.523 UTC","height":8290,"birthday":"1998-10-12T00:00:00Z[Z]","weight":20,"eyeColor":"BLUE","location":{"x":22,"y":1,"z":3,"name":"uoilea"}}}
{"Person":{"x":0,"z":0,"id":9552,"name":"lrw","coordinates":{"x":2,"y":-1},"creationDate":"2023-08-29 15:29:46.223 UTC","height":2039,"birthday":"1000-10-10T00:00:00Z[Z]","weight":13902,"eyeColor":"BLUE","location":{"x":-3,"y":10,"z":-1,"name":"qj"}}}
{"Person":{"x":0,"z":0,"id":2934,"name":"ks","coordinates":{"x":0,"y":0},"creationDate":"2023-08-29 15:31:48.847 UTC","height":10,"birthday":"0001-11-11T00:00:00Z[Z]","weight":29,"eyeColor":"BLUE","location":{"x":0,"y":0,"z":0,"name":"je"}}}
{"Person":{"x":0,"z":0,"id":1418,"name":"Ainu","coordinates":{"x":2,"y":2},"creationDate":"2023-09-03 19:25:16.761 UTC","height":160,"birthday":"2000-06-22T00:00:00Z[Z]","weight":46,"eyeColor":"BROWN","location":{"x":1,"y":2,"z":3,"name":"A"}}}
{"Person":{"x":0,"z":0,"id":6244,"name":"qwert","coordinates":{"x":1,"y":1},"creationDate":"2023-09-04 18:36:36.128 UTC","height":1,"birthday":"1111-11-11T00:00:00Z[Z]","weight":1,"eyeColor":"BROWN","location":{"x":1,"y":1,"z":1,"name":"q"}}}
{"Person":{"x":0,"z":0,"id":2628,"name":"qwertyui","coordinates":{"x":1,"y":1},"creationDate":"2023-09-04 18:44:38.992 UTC","height":1,"birthday":"1111-11-11T00:00:00Z[Z]","weight":1,"eyeColor":"YELLOW","location":{"x":1,"y":1,"z":1,"name":"we"}}}
{"Person":{"x":0,"z":0,"id":809,"name":1,"coordinates":{"x":1,"y":1},"creationDate":"2023-09-04 18:47:46.40 UTC","height":1,"birthday":"1111-11-11T00:00:00Z[Z]","weight":1,"eyeColor":"BLUE","location":{"x":1,"y":1,"z":1,"name":1}}}
